<?xml version="1.0" encoding="UTF-8" standalone="no"?>
<svg width="61px" height="61px" viewBox="0 0 61 61" version="1.1" xmlns="http://www.w3.org/2000/svg" xmlns:xlink="http://www.w3.org/1999/xlink" xmlns:sketch="http://www.bohemiancoding.com/sketch/ns">
    <!-- Generator: Sketch Beta 3.3 (11751) - http://www.bohemiancoding.com/sketch -->
    <title>Google +</title>
    <desc>Created with Sketch Beta.</desc>
    <defs></defs>
    <g id="Page-1" stroke="none" stroke-width="1" fill="none" fill-rule="evenodd" sketch:type="MSPage">
        <g id="Login" sketch:type="MSArtboardGroup" transform="translate(-559.000000, -545.000000)">
            <g id="login" sketch:type="MSLayerGroup" transform="translate(385.000000, 119.000000)">
                <g id="social" transform="translate(174.000000, 379.000000)" sketch:type="MSShapeGroup">
                    <g id="Facebook-+-Google-+" transform="translate(0.000000, 47.000000)">
                        <g id="Google-+">
                            <path d="M0.114372093,30 C0.114372093,13.4314567 13.5900098,1.42108547e-14 30.2130532,1.42108547e-14 C46.8360965,1.42108547e-14 60.3117342,13.4314567 60.3117342,30 C60.3117342,46.5685433 46.8360965,60 30.2130532,60 C13.5900098,60 0.114372093,46.5685433 0.114372093,30 Z" fill="#D34836"></path>
                            <path d="M59.3765113,23.0943 L52.2587819,23.0943 L52.2587819,30.977028 L48.9037867,30.977028 L48.9037867,23.0943 L41.0755064,23.0943 L41.0755064,19.81347 L48.9037867,19.81347 L48.9037867,12 L52.2587819,12 L52.2587819,19.81347 L58.2352205,19.81347 C58.6766308,20.8776397 59.0584594,21.9726805 59.3765113,23.0943 Z" id="Shape" fill="#FFFFFF"></path>
                            <path d="M8.38292092,49.4151658 C9.22453327,48.0045129 10.5295173,46.6176234 12.4627725,45.4779226 C16.8248615,42.8139603 22.6998137,42.4621162 25.8768265,42.2610624 C24.8934654,41.0044764 23.758818,39.6724953 23.758818,37.4860357 C23.758818,36.3048449 24.1118194,35.6011567 24.4648208,34.77181 C23.6831748,34.8472051 22.9267432,34.9226003 22.2207404,34.9226003 C14.7824961,34.9226003 10.5716935,29.3936219 10.5716935,23.9400388 C10.5716935,20.7231786 12.0593423,17.1494481 15.0598544,14.5633941 C19.068942,11.2786783 23.8344611,10.718241 27.6166192,10.718241 L42.0644631,10.718241 L37.5763022,13.2339261 L33.2394276,13.2339261 C34.8531484,14.5633941 38.2066619,17.3605545 38.2066619,22.6834528 C38.2066619,27.860587 35.2565786,30.2983638 32.3317096,32.6104821 C31.3987773,33.515224 30.3649874,34.495361 30.3649874,36.0283959 C30.3649874,37.5614308 31.3987773,38.4159093 32.1804233,39.0442023 L34.701862,41.0044764 C37.8032317,43.5679119 40.6020287,45.9554252 40.6020287,50.7807154 C40.6020287,53.9628155 39.1121544,57.1566546 36.2092452,59.6077057 C34.6473362,59.8615138 33.0450461,59.9954999 31.4121825,59.9998886 C34.3598629,58.7111083 35.8869382,56.3530765 35.8869382,53.5200729 C35.8869382,49.9513687 33.592429,48.0664897 28.2469789,44.2716 C27.6922624,44.2213366 27.339261,44.2213366 26.6332581,44.2213366 C26.0028984,44.2213366 22.2207404,44.3469952 19.2706571,45.3271322 C17.7325794,45.8800301 13.2444185,47.5638553 13.2444185,52.5399358 C13.2444185,53.0807141 13.3021764,53.6050014 13.4148664,54.1099484 C6.02192126,48.6437279 9.22453333,49.4151671 8.38292092,49.4151658 Z M32.029137,25.9003129 C32.029137,20.8488372 29.0286249,13.0253329 23.2041015,13.0253329 C21.3886656,13.0253329 19.4219434,13.9351011 18.287296,15.3349379 C17.1022198,16.8026303 16.7492183,18.6875093 16.7492183,20.4969931 C16.7492183,25.1966247 19.4723722,32.9623261 25.5238251,32.9623261 C27.2636178,32.9623261 29.1546969,32.1078477 30.2893443,31.002052 C31.9030651,29.3936219 32.029137,27.1568989 32.029137,25.9003129 Z" id="Path" fill="#FFFFFF"></path>
                            <path d="M60.3783529,30.180589 C60.3783529,46.7491323 46.9027152,60.180589 30.2796718,60.180589 C24.1145788,60.180589 18.382409,58.3331023 13.6101662,55.1633644 L48.0981216,6 C55.5455747,11.4612393 60.3783529,20.2583863 60.3783529,30.180589 Z" id="reflec" fill-opacity="0.08" fill="#000000"></path>
                        </g>
                    </g>
                </g>
            </g>
        </g>
    </g>
</svg>