<?xml version="1.0" encoding="UTF-8" standalone="no"?>
<svg width="61px" height="60px" viewBox="0 0 61 60" version="1.1" xmlns="http://www.w3.org/2000/svg" xmlns:xlink="http://www.w3.org/1999/xlink">
    <defs></defs>
    <g id="Page-1" stroke="none" stroke-width="1" fill="none" fill-rule="evenodd">
        <g id="Colour">
            <g id="Row-1">
                <g id="Twitter">
                    <path d="M0,30 C0,13.4314567 13.4508663,0 30.0433526,0 C46.6358389,0 60.0867052,13.4314567 60.0867052,30 C60.0867052,46.5685433 46.6358389,60 30.0433526,60 C13.4508663,60 0,46.5685433 0,30 Z" fill="#9B9B9B"></path>
                    <path d="M29.2997675,23.8879776 L29.3627206,24.9260453 L28.3135016,24.798935 C24.4943445,24.3116787 21.1578281,22.6592444 18.3249368,19.8840023 L16.9399677,18.5069737 L16.5832333,19.5238563 C15.8277956,21.7906572 16.3104363,24.1845684 17.8842648,25.7946325 C18.72364,26.6844048 18.5347806,26.8115152 17.0868584,26.2818888 C16.5832333,26.1124083 16.1425613,25.985298 16.1005925,26.0488532 C15.9537019,26.1971486 16.457327,28.1249885 16.8560302,28.8876505 C17.4016241,29.9469033 18.5137962,30.9849709 19.7308902,31.5993375 L20.7591248,32.0865938 L19.5420308,32.1077788 C18.3669055,32.1077788 18.3249368,32.1289639 18.4508431,32.57385 C18.8705307,33.9508786 20.5282967,35.4126474 22.3749221,36.048199 L23.6759536,36.4930852 L22.5427971,37.1710069 C20.8640467,38.1455194 18.891515,38.6963309 16.9189833,38.738701 C15.9746862,38.759886 15.1982642,38.8446262 15.1982642,38.9081814 C15.1982642,39.1200319 17.7583585,40.306395 19.2482495,40.7724662 C23.7179224,42.1494948 29.0269705,41.5563132 33.0140027,39.2047722 C35.846894,37.5311528 38.6797853,34.2050993 40.0018012,30.9849709 C40.7152701,29.2689815 41.428739,26.1335934 41.428739,24.6294545 C41.428739,23.654942 41.4916922,23.5278317 42.6668174,22.3626537 C43.359302,21.6847319 44.0098178,20.943255 44.135724,20.7314044 C44.3455678,20.3288884 44.3245835,20.3288884 43.2543801,20.6890343 C41.4707078,21.324586 41.2188952,21.2398458 42.1002392,20.2865183 C42.750755,19.6085965 43.527177,18.3798634 43.527177,18.0197174 C43.527177,17.9561623 43.2124113,18.0620876 42.8556769,18.252753 C42.477958,18.4646036 41.6385828,18.7823794 41.0090514,18.9730449 L39.8758949,19.3331908 L38.8476603,18.634084 C38.281082,18.252753 37.4836756,17.829052 37.063988,17.7019416 C35.9937846,17.4053509 34.357003,17.447721 33.3917215,17.7866818 C30.768674,18.7400093 29.110908,21.1974757 29.2997675,23.8879776 Z" id="Path" fill="#FFFFFF"></path>
                    <path d="M60.0867052,30 C60.0867052,46.5685433 46.6358389,60 30.0433526,60 C23.8895925,60 18.1679598,58.1525134 13.4044895,54.9827754 L47.8290478,5.81941103 C55.2628108,11.2806503 60.0867052,20.0777973 60.0867052,30 Z" id="reflec" fill-opacity="0.08" fill="#9B9B9B"></path>
                </g>
            </g>
        </g>
    </g>
</svg>